Getting Started with avilistr • avilistr
…
Pattern Matching

# Find species with "Robin" in their name
robins <- avilist_2025_short %>%
  filter(str_detect(English_name_AviList, "Robin"), Taxon_rank == "species") %>%
  select(Scientific_name, English_name_AviList, Family) %>%
  arrange(Family)

print(robins)
#> # A tibble: 100 × 3
#>    Scientific_name         English_name_AviList      Family      
#>    <chr>                   <chr>                     <chr>       
#>  1 Tychaedon coryphoeus    Karoo Scrub Robin         Muscicapidae
#>  2 Tychaedon leucosticta   Forest Scrub Robin        Muscicapidae
#>  3 Tychaedon signata       Brown Scrub Robin         Muscicapidae
#>  4 Tychaedon quadrivirgata Bearded Scrub Robin       Muscicapidae
#>  5 Tychaedon barbata       Miombo Scrub Robin        Muscicapidae
#>  6 Cercotrichas podobe     Black Scrub Robin         Muscicapidae
#>  7 Cercotrichas galactotes Rufous-tailed Scrub Robin Muscicapidae
#>  8 Cercotrichas paena      Kalahari Scrub Robin      Muscicapidae
#>  9 Cercotrichas hartlaubi  Brown-backed Scrub Robin  Muscicapidae
#> 10 Cercotrichas leucophrys White-browed Scrub Robin  Muscicapidae
#> # ℹ 90 more rows
…
Exploring Field Metadata

# Understand the available fields
print(avilist_metadata)
#> # A tibble: 26 × 6
#>    field_name      in_full_version in_short_version description data_type source
#>    <chr>           <lgl>           <lgl>            <chr>       <chr>     <chr> 
#>  1 Authority       TRUE            TRUE             Author and… character AviLi…
#>  2 AvibaseID       TRUE            TRUE             Avibase da… character Aviba…
#>  3 Bibliographic_… TRUE            TRUE             Bibliograp… character AviLi…
#>  4 BirdLife_DataZ… TRUE            FALSE            BirdLife D… characte… BirdL…
#>  5 Birds_of_the_W… TRUE            FALSE            Birds of t… characte… Corne…
#>  6 Decision_summa… TRUE            TRUE             Data field… character AviLi…
#>  7 English_name_A… TRUE            TRUE             English co… character AviLi…
#>  8 English_name_B… TRUE            FALSE            Name field… character BirdL…
#>  9 English_name_C… TRUE            FALSE            English co… character Cleme…
#> 10 Extinct_or_pos… TRUE            TRUE             Data field… character AviLi…
#> # ℹ 16 more rows
…
